[
  {
    "code":"africa",
    "name":"Africa"
  },
  {
    "code":"americas",
    "name":"Americas"
  },
  {
    "code":"asia",
    "name":"Asia"
  },
  {
    "code":"europe",
    "name":"Europe"
  },
  {
    "code":"oceania",
    "name":"Oceania"
  },
  {
    "code":"polar",
    "name":"Polar"
  }
]